Metodología Cuantitativa Avanzada - MCS - Práctico 01. Aproximación inicial a R
…
Ahora probemos algunas funciones para seguir explorando la base

table(base$sexo)

     F      I      M 
531038    318 327426 

Podemos ver la cantidad de nombres “F” (femenino), “M” (masculino) e “I” (indefinido) inscritos entre 1920 y 2021.

Pueden buscar sus nombres y probar, utilizamos la funcion filter del paquete dplyr

filter(base, nombre=="Kevin")

# A tibble: 63 × 5
    anio nombre sexo      n proporcion
   <dbl> <chr>  <chr> <dbl>      <dbl>
 1  1931 Kevin  M         1 0.0000120 
 2  1963 Kevin  M         1 0.0000035 
 3  1964 Kevin  M         1 0.00000344
 4  1967 Kevin  M         4 0.0000131 
 5  1970 Kevin  M         6 0.0000210 
 6  1971 Kevin  M         3 0.00000936
 7  1972 Kevin  M         3 0.00000945
 8  1973 Kevin  M         2 0.00000633
 9  1974 Kevin  M         5 0.0000163 
10  1976 Kevin  M         2 0.00000724
# ℹ 53 more rows
…
